Following is the response for the GET Request - 

https://api.ci.spglobal.com/market-data/v3/value/history/symbol?filter=symbol+IN+("PCAAS00","PCAAT00")+AND+assessDate>="2025-04-01"+AND+assessDate<="2025-04-10"&sort=assessDate:desc&pageSize=10&bate=c

Response:
{"metadata":{"count":48,"pageSize":10,"page":1,"totalPages":5,"queryTime":"91 ms"},"results":[{"symbol":"PCAAS00","data":[{"bate":"c","value":65.435,"assessDate":"2025-04-10T00:00:00","isCorrected":"N","modDate":"2025-04-10T17:41:56"},{"bate":"h","value":65.44,"assessDate":"2025-04-10T00:00:00","isCorrected":"N","modDate":"2025-04-10T17:41:56"},{"bate":"l","value":65.43,"assessDate":"2025-04-10T00:00:00","isCorrected":"N","modDate":"2025-04-10T17:41:56"},{"bate":"c","value":62.685,"assessDate":"2025-04-09T00:00:00","isCorrected":"N","modDate":"2025-04-09T17:16:44"},{"bate":"h","value":62.69,"assessDate":"2025-04-09T00:00:00","isCorrected":"N","modDate":"2025-04-09T17:16:44"},{"bate":"l","value":62.68,"assessDate":"2025-04-09T00:00:00","isCorrected":"N","modDate":"2025-04-09T17:16:44"}]},{"symbol":"PCAAT00","data":[{"bate":"c","value":65.4,"assessDate":"2025-04-10T00:00:00","isCorrected":"N","modDate":"2025-04-10T08:39:03"},{"bate":"h","value":65.41,"assessDate":"2025-04-10T00:00:00","isCorrected":"N","modDate":"2025-04-10T08:39:03"},{"bate":"l","value":65.39,"assessDate":"2025-04-10T00:00:00","isCorrected":"N","modDate":"2025-04-10T08:39:03"},{"bate":"c","value":61.9,"assessDate":"2025-04-09T00:00:00","isCorrected":"N","modDate":"2025-04-09T08:41:46"}]}]}